lab1/vivado_proj/StateGraphBySimulation/StateGraphBySimulation.sim/sim_1/behav/xsim/stoplight.vcd
$date
   Wed Feb 25 17:56:53 2026
$end

$version
  2024.1
  $dumpfile ("stoplight.vcd") 
$end

$timescale
  1ps
$end

$scope module tb_stoplight1 $end
$var reg 1 ! Ped $end
$var reg 1 " clock $end
$var wire 1 # SigG $end
$var wire 1 $ SigY $end
$var wire 1 % SigR $end
$scope module dut $end
$var wire 1 & Ped $end
$var wire 1 ' clock $end
$var wire 1 # SigG $end
$var wire 1 $ SigY $end
$var wire 1 % SigR $end
$var reg 1 ( S3 $end
$var reg 1 ) S2 $end
$var reg 1 * S1 $end
$var reg 1 + S0 $end
$var wire 1 , n13 $end
$var wire 1 - n14 $end
$var wire 1 . n15 $end
$var wire 1 / n16 $end
$var wire 1 0 n17 $end
$var wire 1 1 n18 $end
$var wire 1 2 n19 $end
$var wire 1 3 n20 $end
$var wire 1 4 n21 $end
$var wire 1 5 n22 $end
$var wire 1 6 n23 $end
$var wire 1 7 n24 $end
$var wire 1 8 n25 $end
$var wire 1 9 n26 $end
$var wire 1 : n27 $end
$var wire 1 ; n28 $end
$var wire 1 < n29 $end
$var wire 1 = n30 $end
$var wire 1 > n31 $end
$var wire 1 ? n32 $end
$var wire 1 @ n33 $end
$var wire 1 A n34 $end
$var wire 1 B n35 $end
$var wire 1 C n36 $end
$var wire 1 D n38 $end
$var wire 1 E n40 $end
$var wire 1 F n42 $end
$var wire 1 G n41 $end
$var wire 1 H n43 $end
$var wire 1 I n44 $end
$var wire 1 J n45 $end
$var wire 1 K n47 $end
$var wire 1 L n48 $end
$var wire 1 M n49 $end
$var wire 1 N n52 $end
$var wire 1 O n53 $end
$var wire 1 P n54 $end
$var wire 1 Q n55 $end
$var wire 1 R n56 $end
$var wire 1 S n57 $end
$var wire 1 T n58 $end
$var wire 1 U n59 $end
$var wire 1 V n60 $end
$var wire 1 W n61 $end
$var wire 1 X n62 $end
$var wire 1 Y n64 $end
$var wire 1 Z n65 $end
$var wire 1 [ n66 $end
$var wire 1 \ n67 $end
$var wire 1 ] NS0 $end
$var wire 1 ^ NS1 $end
$var wire 1 _ NS2 $end
$var wire 1 ` NS3 $end
$upscope $end
$upscope $end
$enddefinitions $end

#0
$dumpvars
0!
0"
0#
0$
1%
0&
0'
0(
0)
0*
0+
1,
0-
0.
0/
10
01
02
13
14
15
06
17
18
19
0:
1;
1<
1=
1>
0?
1@
1A
1B
1C
0D
0E
1F
0G
1H
0I
0J
0K
1L
1M
0N
1O
1P
0Q
0R
1S
0T
0U
1V
1W
1X
1Y
1Z
0[
0\
1]
0^
0_
0`
$end

#5000
1"
1'
1+
05
1E
0F
1G
0H
1I
0P
0X
1[
1\
0]
1^

#10000
0"
0'

#15000
1"
1'
1*
0+
15
0<
0>
0E
1F
0G
1H
0I
1N
0O
1Q
0Y
0Z
0[
0\
1]

#20000
0"
0'

#25000
1"
1#
0%
1'
1+
11
05
1:
0;
0A
0B
0C
0H
1I
1J
0N
1O
1P
1X
1Y
1Z
1[
1\
0]
0^
1_

#30000
0"
0'

#35000
1"
1'
1)
0*
0+
1-
01
15
16
07
08
09
0:
1;
1<
1>
1?
0@
0A
0Q
1T
0Z
0\
1]

#40000
0"
0'

#45000
1"
1'
1+
05
06
17
1E
0T

#50000
0"
0'

#55000
1"
1'

#60000
0"
0'

#65000
1"
1'

#70000
0"
0'

#75000
1"
1'

#80000
0"
0'

#85000
1"
1'

#90000
0"
0'

#95000
1"
1'

#100000
0"
0'

#105000
1"
1'

#110000
0"
0'

#115000
1"
1'

#120000
0"
0'

#125000
1"
1'

#130000
0"
0'

#135000
1!
1"
1#
0%
1&
1'
1)
1+
1-
1.
1/
00
04
05
08
09
0=
0>
0?
1@
1A
1B
0C
1E
0H
1I
1J
0M
0T
0U
1V
1W
1X
1Z
1[
1\
0]
0^
0_
1`

#140000
0"
0'

#145000
1"
0#
1$
1'
1(
0)
0+
0,
0-
0.
0/
10
14
15
18
1C
1D
0E
1K
0L
0Y
0Z
0\
1]

#150000
0"
0'

#155000
1"
1'
1+
1.
05
1E
0K
1L
1M
1Y
1Z
1\
0]
0`

#160000
0"
0'

#165000
1"
0$
1%
1'
0(
0+
1,
0.
15
19
0D
0E
1H
0I
0J
0[
0\
1]

#170000
0"
0'

#175000
1"
1'
1+
1.
05
1E
0F
1G
0H
1I
0P
0X
1[
1\
0]
1^

#180000
0"
0'

#185000
1"
1'
1*
0+
0.
15
0<
0E
1F
0G
1H
0I
1N
0O
1Q
1R
0S
0W
0Y
0Z
0[
0\
1]

#190000
0"
0'

#195000
1"
1#
0%
1'
1+
1.
11
05
1:
0;
0A
0B
0C
0H
1I
1J
0N
1O
1P
1Y
1Z
1[
1\
0]
1_

#200000
0"
0'

#205000
1"
1'
1)
0+
1-
0.
01
15
16
07
08
09
0:
1;
1A
1N
0O
0P
0Q
0R
1S
1T
1U
0V
0Y
0Z
0[
0\
1]

#210000
0"
0'

#215000
1"
1'
1+
1.
1/
00
11
12
03
04
05
06
17
1B
0M
0N
1O
1P
0T
0U
1V
1W
1X
1Y
1Z
1[
1\
0]
0^
0_
1`

#220000
0"
0'

#225000
1"
0#
1$
1'
1(
0)
0*
0+
0,
0-
0.
0/
10
01
02
13
14
15
18
1<
1C
1D
1K
0L
0Y
0Z
0\
1]

#230000
0"
0'

#235000
1"
1'
1+
1.
05
1E
0K
1L
1M
1Y
1Z
1\
0]
0`

#240000
0"
0'

#245000
1"
0$
1%
1'
0(
0+
1,
0.
15
19
0D
0E
1H
0I
0J
0[
0\
1]

#250000
0"
0'

#255000
1"
1'
1+
1.
05
1E
0F
1G
0H
1I
0P
0X
1[
1\
0]
1^

#260000
0"
0'

#265000
1"
1'
1*
0+
0.
15
0<
0E
1F
0G
1H
0I
1N
0O
1Q
1R
0S
0W
0Y
0Z
0[
0\
1]

#270000
0"
0'

#275000
1"
1#
0%
1'
1+
1.
11
05
1:
0;
0A
0B
0C
0H
1I
1J
0N
1O
1P
1Y
1Z
1[
1\
0]
1_

#280000
0"
0'

#285000
1"
1'
1)
0+
1-
0.
01
15
16
07
08
09
0:
1;
1A
1N
0O
0P
0Q
0R
1S
1T
1U
0V
0Y
0Z
0[
0\
1]

